Verification/dump.vcd
$date
	Sun Jul 16 05:34:32 2023
$end

$version
	Synopsys VCS version S-2021.09
$end

$timescale
	1ns
$end

$comment Csum: 1 bcd5cf498125f968 $end


$scope module $unit $end
$upscope $end


$scope module top $end
$var reg 1 ! clk $end
$var reg 1 " en_tx $end
$var reg 1 # en_rx $end
$var wire 1 $ serial_line $end

$scope begin unnamed$$_0 $end
$upscope $end


$scope begin unnamed$$_vcs_0 $end
$upscope $end


$scope begin unnamed$$_vcs_1 $end
$upscope $end


$scope module intf $end
$var wire 1 % clk $end
$var wire 1 & en_rx $end
$var wire 1 ' en_tx $end
$var reg 8 ( data_rx [7:0] $end
$var reg 8 ) data_tx [7:0] $end
$var reg 1 * tx_done $end
$var reg 1 + rx_done $end
$var reg 1 , u_tx $end
$upscope $end


$scope module master $end
$var wire 1 % clk $end
$var wire 8 - data [7:0] $end
$var wire 1 . en_tx $end
$var reg 1 / u_tx $end
$var reg 1 0 u_tx_done $end
$var reg 3 1 state_tx [2:0] $end
$var reg 3 2 count [2:0] $end
$var reg 8 3 din [7:0] $end
$upscope $end


$scope module slave $end
$var wire 1 % clk $end
$var wire 1 $ u_rx $end
$var wire 8 4 data [7:0] $end
$var wire 1 & en_rx $end
$var reg 1 5 u_rx_done $end
$var reg 3 6 state_rx [2:0] $end
$var reg 4 7 count [3:0] $end
$var reg 8 8 dout [7:0] $end
$upscope $end

$upscope $end

$enddefinitions $end

#0
$dumpvars
0!
0#
0"
bxxxxxxxx )
bxxxxxxxx (
x/
x0
bxxx 2
bxxxxxxxx 3
b001 1
x5
bxxxx 7
bxxxxxxxx 8
b000 6
x+
0%
0'
bxxxxxxxx -
x$
bxxxxxxxx 4
0&
0.
x*
x,
$end
#5
1!
1%
1"
1&
1.
1#
1'
b01001111 )
b01001111 -
#10
0!
0%
b010 1
b01001111 3
0/
0$
00
0*
b000 2
b0000 7
05
0+
bzzzzzzzz 4
bzzzzzzzz (
#15
1!
1%
#20
0!
0%
b001 2
1/
1$
b010 6
#25
1!
1%
#30
0!
0%
b010 2
bxxxxxxx1 8
b0001 7
#35
1!
1%
#40
0!
0%
b011 2
bxxxxxx11 8
b0010 7
#45
1!
1%
#50
0!
0%
b100 2
bxxxxx111 8
b0011 7
#55
1!
1%
#60
0!
0%
b101 2
0/
0$
bxxxx1111 8
b0100 7
#65
1!
1%
#70
0!
0%
b110 2
bxxx01111 8
b0101 7
#75
1!
1%
#80
0!
0%
b111 2
1/
1$
bxx001111 8
b0110 7
#85
1!
1%
#90
0!
0%
b000 2
0/
0$
b011 1
bx1001111 8
b0111 7
#95
1!
1%
#100
0!
0%
1/
1$
b100 1
b01001111 8
b011 6
#105
1!
1%
#110
0!
0%
10
1*
0/
0$
b001 1
b100 6
15
1+
b01001111 4
b01001111 (
b00100110 )
b00100110 -
#115
1!
1%
#120
0!
0%
b010 1
b00100110 3
00
0*
b000 6
#125
1!
1%
#130
0!
0%
b001 2
b0000 7
05
0+
b010 6
bzzzzzzzz 4
bzzzzzzzz (
#135
1!
1%
#140
0!
0%
b010 2
1/
1$
b01001110 8
b0001 7
#145
1!
1%
#150
0!
0%
b011 2
b0010 7
#155
1!
1%
#160
0!
0%
b100 2
0/
0$
b0011 7
#165
1!
1%
#170
0!
0%
b101 2
b01000110 8
b0100 7
#175
1!
1%
#180
0!
0%
b110 2
1/
1$
b0101 7
#185
1!
1%
#190
0!
0%
b111 2
0/
0$
b01100110 8
b0110 7
#195
1!
1%
#200
0!
0%
b000 2
b011 1
b00100110 8
b0111 7
#205
1!
1%
#210
0!
0%
1/
1$
b100 1
b011 6
#215
1!
1%
#220
0!
0%
10
1*
0/
0$
b001 1
b100 6
15
1+
b00100110 4
b00100110 (
b01001110 )
b01001110 -
#225
1!
1%
#230
0!
0%
b010 1
b01001110 3
00
0*
b000 6
#235
1!
1%
#240
0!
0%
b001 2
b0000 7
05
0+
b010 6
bzzzzzzzz 4
bzzzzzzzz (
#245
1!
1%
#250
0!
0%
b010 2
1/
1$
b0001 7
#255
1!
1%
#260
0!
0%
b011 2
b0010 7
#265
1!
1%
#270
0!
0%
b100 2
b0011 7
#275
1!
1%
#280
0!
0%
b101 2
0/
0$
b00101110 8
b0100 7
#285
1!
1%
#290
0!
0%
b110 2
b0101 7
#295
1!
1%
#300
0!
0%
b111 2
1/
1$
b00001110 8
b0110 7
#305
1!
1%
#310
0!
0%
b000 2
0/
0$
b011 1
b01001110 8
b0111 7
#315
1!
1%
#320
0!
0%
b100 1
b011 6
#325
1!
1%
#330
0!
0%
10
1*
b001 1
b100 6
15
1+
b01001110 4
b01001110 (
b00101101 )
b00101101 -
#335
1!
1%
#340
0!
0%
b010 1
b00101101 3
00
0*
b000 6
#345
1!
1%
#350
0!
0%
b001 2
1/
1$
b0000 7
05
0+
b010 6
bzzzzzzzz 4
bzzzzzzzz (
#355
1!
1%
#360
0!
0%
b010 2
0/
0$
b01001111 8
b0001 7
#365
1!
1%
#370
0!
0%
b011 2
1/
1$
b01001101 8
b0010 7
#375
1!
1%
#380
0!
0%
b100 2
b0011 7
#385
1!
1%
#390
0!
0%
b101 2
0/
0$
b0100 7
#395
1!
1%
#400
0!
0%
b110 2
1/
1$
b0101 7
#405
1!
1%
#410
0!
0%
b111 2
0/
0$
b01101101 8
b0110 7
#415
1!
1%
#420
0!
0%
b000 2
b011 1
b00101101 8
b0111 7
#425
1!
1%
#430
0!
0%
b100 1
b011 6
#435
1!
1%
#440
0!
0%
10
1*
b001 1
b100 6
15
1+
b00101101 4
b00101101 (
b01101100 )
b01101100 -
#445
1!
1%
#450
0!
0%
b010 1
b01101100 3
00
0*
b000 6
#455
1!
1%
#460
0!
0%
b001 2
b0000 7
05
0+
b010 6
bzzzzzzzz 4
bzzzzzzzz (
#465
1!
1%
#470
0!
0%
b010 2
b00101100 8
b0001 7
#475
1!
1%
#480
0!
0%
b011 2
1/
1$
b0010 7
#485
1!
1%
#490
0!
0%
b100 2
b0011 7
#495
1!
1%
#500
0!
0%
b101 2
0/
0$
b0100 7
#505
1!
1%
#510
0!
0%
b110 2
1/
1$
b0101 7
#515
1!
1%
#520
0!
0%
b111 2
b0110 7
#525
1!
1%
#530
0!
0%
b000 2
0/
0$
b011 1
b01101100 8
b0111 7
#535
1!
1%
#540
0!
0%
b100 1
b011 6
#545
1!
1%
#550
0!
0%
10
1*
b001 1
b100 6
15
1+
b01101100 4
b01101100 (
b11010101 )
b11010101 -
#555
1!
1%
#560
0!
0%
b010 1
b11010101 3
00
0*
b000 6
#565
1!
1%
#570
0!
0%
b001 2
1/
1$
b0000 7
05
0+
b010 6
bzzzzzzzz 4
bzzzzzzzz (
#575
1!
1%
#580
0!
0%
b010 2
0/
0$
b01101101 8
b0001 7
#585
1!
1%
#590
0!
0%
b011 2
1/
1$
b0010 7
#595
1!
1%
#600
0!
0%
b100 2
0/
0$
b0011 7
#605
1!
1%
#610
0!
0%
b101 2
1/
1$
b01100101 8
b0100 7
#615
1!
1%
#620
0!
0%
b110 2
0/
0$
b01110101 8
b0101 7
#625
1!
1%
#630
0!
0%
b111 2
1/
1$
b01010101 8
b0110 7
#635
1!
1%
#640
0!
0%
b000 2
b011 1
b0111 7
#645
1!
1%
#650
0!
0%
b100 1
b11010101 8
b011 6
#655
1!
1%
#660
0!
0%
10
1*
0/
0$
b001 1
b100 6
15
1+
b11010101 4
b11010101 (
b10011000 )
b10011000 -
#665
1!
1%
#670
0!
0%
b010 1
b10011000 3
00
0*
b000 6
#675
1!
1%
#680
0!
0%
b001 2
b0000 7
05
0+
b010 6
bzzzzzzzz 4
bzzzzzzzz (
#685
1!
1%
#690
0!
0%
b010 2
b11010100 8
b0001 7
#695
1!
1%
#700
0!
0%
b011 2
b0010 7
#705
1!
1%
#710
0!
0%
b100 2
1/
1$
b11010000 8
b0011 7
#715
1!
1%
#720
0!
0%
b101 2
b11011000 8
b0100 7
#725
1!
1%
#730
0!
0%
b110 2
0/
0$
b0101 7
#735
1!
1%
#740
0!
0%
b111 2
b0110 7
#745
1!
1%
#750
0!
0%
b000 2
1/
1$
b011 1
b10011000 8
b0111 7
#755
1!
1%
#760
0!
0%
b100 1
b011 6
#765
1!
1%
#770
0!
0%
10
1*
0/
0$
b001 1
b100 6
15
1+
b10011000 4
b10011000 (
b10011110 )
b10011110 -
#775
1!
1%
#780
0!
0%
b010 1
b10011110 3
00
0*
b000 6
#785
1!
1%
#790
0!
0%
b001 2
b0000 7
05
0+
b010 6
bzzzzzzzz 4
bzzzzzzzz (
#795
1!
1%
#800
0!
0%
b010 2
1/
1$
b0001 7
#805
1!
1%
#810
0!
0%
b011 2
b10011010 8
b0010 7
#815
1!
1%
#820
0!
0%
b100 2
b10011110 8
b0011 7
#825
1!
1%
#830
0!
0%
b101 2
b0100 7
#835
1!
1%
#840
0!
0%
b110 2
0/
0$
b0101 7
#845
1!
1%
#850
0!
0%
b111 2
b0110 7
#855
1!
1%
#860
0!
0%
b000 2
1/
1$
b011 1
b0111 7
#865
1!
1%
#870
0!
0%
b100 1
b011 6
#875
1!
1%
#880
0!
0%
10
1*
0/
0$
b001 1
b100 6
15
1+
b10011110 4
b10011110 (
b11001001 )
b11001001 -
#885
1!
1%
#890
0!
0%
b010 1
b11001001 3
00
0*
b000 6
#895
1!
1%
#900
0!
0%
b001 2
1/
1$
b0000 7
05
0+
b010 6
bzzzzzzzz 4
bzzzzzzzz (
#905
1!
1%
#910
0!
0%
b010 2
0/
0$
b10011111 8
b0001 7
#915
1!
1%
#920
0!
0%
b011 2
b10011101 8
b0010 7
#925
1!
1%
#930
0!
0%
b100 2
1/
1$
b10011001 8
b0011 7
#935
1!
1%
#940
0!
0%
b101 2
0/
0$
b0100 7
#945
1!
1%
#950
0!
0%
b110 2
b10001001 8
b0101 7
#955
1!
1%
#960
0!
0%
b111 2
1/
1$
b0110 7
#965
1!
1%
#970
0!
0%
b000 2
b011 1
b11001001 8
b0111 7
#975
1!
1%
#980
0!
0%
0/
0$
b100 1
b011 6
#985
1!
1%
#990
0!
0%
10
1*
b001 1
b100 6
15
1+
b11001001 4
b11001001 (
b11100001 )
b11100001 -
#995
1!
1%
#1000
0!
0%
b010 1
b11100001 3
00
0*
b000 6
#1005
1!
1%
#1010
0!
0%
b001 2
1/
1$
b0000 7
05
0+
b010 6
bzzzzzzzz 4
bzzzzzzzz (
#1015
1!
1%
#1020
0!
0%
b010 2
0/
0$
b0001 7
#1025
1!
1%
#1030
0!
0%
b011 2
b0010 7
#1035
1!
1%
#1040
0!
0%
b100 2
b0011 7
#1045
1!
1%
#1050
0!
0%
b101 2
b11000001 8
b0100 7
#1055
1!
1%
#1060
0!
0%
b110 2
1/
1$
b0101 7
#1065
1!
1%
#1070
0!
0%
b111 2
b11100001 8
b0110 7
#1075
1!
1%
#1080
0!
0%
b000 2
b011 1
b0111 7
#1085
1!
1%
#1090
0!
0%
0/
0$
b100 1
b011 6
#1095
1!
1%
#1100
0!
0%
10
1*
b001 1
b100 6
15
1+
b11100001 4
b11100001 (
b10011100 )
b10011100 -
#1105
1!
1%
#1110
0!
0%
b010 1
b10011100 3
00
0*
b000 6
#1115
1!
1%
#1120
0!
0%
b001 2
b0000 7
05
0+
b010 6
bzzzzzzzz 4
bzzzzzzzz (
#1125
1!
1%
#1130
0!
0%
b010 2
b11100000 8
b0001 7
#1135
1!
1%
#1140
0!
0%
b011 2
1/
1$
b0010 7
#1145
1!
1%
#1150
0!
0%
b100 2
b11100100 8
b0011 7
#1155
1!
1%
#1160
0!
0%
b101 2
b11101100 8
b0100 7
#1165
1!
1%
#1170
0!
0%
b110 2
0/
0$
b11111100 8
b0101 7
#1175
1!
1%
#1180
0!
0%
b111 2
b11011100 8
b0110 7
#1185
1!
1%
#1190
0!
0%
b000 2
1/
1$
b011 1
b10011100 8
b0111 7
#1195
1!
1%
#1200
0!
0%
0/
0$
b100 1
b011 6
#1205
1!
1%
#1210
0!
0%
10
1*
b001 1
b100 6
15
1+
b10011100 4
b10011100 (
b01100010 )
b01100010 -
#1215
1!
1%
#1220
0!
0%
b010 1
b01100010 3
00
0*
b000 6
#1225
1!
1%
#1230
0!
0%
b001 2
b0000 7
05
0+
b010 6
bzzzzzzzz 4
bzzzzzzzz (
#1235
1!
1%
#1240
0!
0%
b010 2
1/
1$
b0001 7
#1245
1!
1%
#1250
0!
0%
b011 2
0/
0$
b10011110 8
b0010 7
#1255
1!
1%
#1260
0!
0%
b100 2
b10011010 8
b0011 7
#1265
1!
1%
#1270
0!
0%
b101 2
b10010010 8
b0100 7
#1275
1!
1%
#1280
0!
0%
b110 2
1/
1$
b10000010 8
b0101 7
#1285
1!
1%
#1290
0!
0%
b111 2
b10100010 8
b0110 7
#1295
1!
1%
#1300
0!
0%
b000 2
0/
0$
b011 1
b11100010 8
b0111 7
#1305
1!
1%
#1310
0!
0%
1/
1$
b100 1
b01100010 8
b011 6
#1315
1!
1%
#1320
0!
0%
10
1*
0/
0$
b001 1
b100 6
15
1+
b01100010 4
b01100010 (
b01011101 )
b01011101 -
#1325
1!
1%
#1330
0!
0%
b010 1
b01011101 3
00
0*
b000 6
#1335
1!
1%
#1340
0!
0%
b001 2
1/
1$
b0000 7
05
0+
b010 6
bzzzzzzzz 4
bzzzzzzzz (
#1345
1!
1%
#1350
0!
0%
b010 2
0/
0$
b01100011 8
b0001 7
#1355
1!
1%
#1360
0!
0%
b011 2
1/
1$
b01100001 8
b0010 7
#1365
1!
1%
#1370
0!
0%
b100 2
b01100101 8
b0011 7
#1375
1!
1%
#1380
0!
0%
b101 2
b01101101 8
b0100 7
#1385
1!
1%
#1390
0!
0%
b110 2
0/
0$
b01111101 8
b0101 7
#1395
1!
1%
#1400
0!
0%
b111 2
1/
1$
b01011101 8
b0110 7
#1405
1!
1%
#1410
0!
0%
b000 2
0/
0$
b011 1
b0111 7
#1415
1!
1%
#1420
0!
0%
1/
1$
b100 1
b011 6
#1425
1!
1%
#1430
0!
0%
10
1*
0/
0$
b001 1
b100 6
15
1+
b01011101 4
b01011101 (
b10010001 )
b10010001 -
#1435
1!
1%
#1440
0!
0%
b010 1
b10010001 3
00
0*
b000 6
#1445
1!
1%
#1450
0!
0%
b001 2
1/
1$
b0000 7
05
0+
b010 6
bzzzzzzzz 4
bzzzzzzzz (
#1455
1!
1%
#1460
0!
0%
b010 2
0/
0$
b0001 7
#1465
1!
1%
#1470
0!
0%
b011 2
b0010 7
#1475
1!
1%
#1480
0!
0%
b100 2
b01011001 8
b0011 7
#1485
1!
1%
#1490
0!
0%
b101 2
1/
1$
b01010001 8
b0100 7
#1495
1!
1%
#1500
0!
0%
b110 2
0/
0$
b0101 7
#1505
1!
1%
#1510
0!
0%
b111 2
b0110 7
#1515
1!
1%
#1520
0!
0%
b000 2
1/
1$
b011 1
b00010001 8
b0111 7
#1525
1!
1%
#1530
0!
0%
b100 1
b10010001 8
b011 6
#1535
1!
1%
#1540
0!
0%
10
1*
0/
0$
b001 1
b100 6
15
1+
b10010001 4
b10010001 (
b10011011 )
b10011011 -
#1545
1!
1%
#1550
0!
0%
b010 1
b10011011 3
00
0*
b000 6
#1555
1!
1%
#1560
0!
0%
b001 2
1/
1$
b0000 7
05
0+
b010 6
bzzzzzzzz 4
bzzzzzzzz (
#1565
1!
1%
#1570
0!
0%
b010 2
b0001 7
#1575
1!
1%
#1580
0!
0%
b011 2
0/
0$
b10010011 8
b0010 7
#1585
1!
1%
#1590
0!
0%
b100 2
1/
1$
b0011 7
#1595
1!
1%
#1600
0!
0%
b101 2
b10011011 8
b0100 7
#1605
1!
1%
#1610
0!
0%
b110 2
0/
0$
b0101 7
#1615
1!
1%
#1620
0!
0%
b111 2
b0110 7
#1625
1!
1%
#1630
0!
0%
b000 2
1/
1$
b011 1
b0111 7
#1635
1!
1%
#1640
0!
0%
b100 1
b011 6
#1645
1!
1%
#1650
0!
0%
10
1*
0/
0$
b001 1
b100 6
15
1+
b10011011 4
b10011011 (
b11101110 )
b11101110 -
#1655
1!
1%
#1660
0!
0%
b010 1
b11101110 3
00
0*
b000 6
#1665
1!
1%
#1670
0!
0%
b001 2
b0000 7
05
0+
b010 6
bzzzzzzzz 4
bzzzzzzzz (
#1675
1!
1%
#1680
0!
0%
b010 2
1/
1$
b10011010 8
b0001 7
#1685
1!
1%
#1690
0!
0%
b011 2
b0010 7
#1695
1!
1%
#1700
0!
0%
b100 2
b10011110 8
b0011 7
#1705
1!
1%
#1710
0!
0%
b101 2
0/
0$
b0100 7
#1715
1!
1%
#1720
0!
0%
b110 2
1/
1$
b10001110 8
b0101 7
#1725
1!
1%
#1730
0!
0%
b111 2
b10101110 8
b0110 7
#1735
1!
1%
#1740
0!
0%
b000 2
b011 1
b11101110 8
b0111 7
#1745
1!
1%
#1750
0!
0%
0/
0$
b100 1
b011 6
#1755
1!
1%
#1760
0!
0%
10
1*
b001 1
b100 6
15
1+
b11101110 4
b11101110 (
b11001111 )
b11001111 -
#1765
1!
1%
#1770
0!
0%
b010 1
b11001111 3
00
0*
b000 6
#1775
1!
1%
#1780
0!
0%
b001 2
1/
1$
b0000 7
05
0+
b010 6
bzzzzzzzz 4
bzzzzzzzz (
#1785
1!
1%
#1790
0!
0%
b010 2
b11101111 8
b0001 7
#1795
1!
1%
#1800
0!
0%
b011 2
b0010 7
#1805
1!
1%
#1810
0!
0%
b100 2
b0011 7
#1815
1!
1%
#1820
0!
0%
b101 2
0/
0$
b0100 7
#1825
1!
1%
#1830
0!
0%
b110 2
b0101 7
#1835
1!
1%
#1840
0!
0%
b111 2
1/
1$
b11001111 8
b0110 7
#1845
1!
1%
#1850
0!
0%
b000 2
b011 1
b0111 7
#1855
1!
1%
#1860
0!
0%
0/
0$
b100 1
b011 6
#1865
1!
1%
#1870
0!
0%
10
1*
b001 1
b100 6
15
1+
b11001111 4
b11001111 (
b10011011 )
b10011011 -
#1875
1!
1%
#1880
0!
0%
b010 1
b10011011 3
00
0*
b000 6
#1885
1!
1%
#1890
0!
0%
b001 2
1/
1$
b0000 7
05
0+
b010 6
bzzzzzzzz 4
bzzzzzzzz (
#1895
1!
1%
#1900
0!
0%
b010 2
b0001 7
#1905
1!
1%
#1910
0!
0%
b011 2
0/
0$
b0010 7
#1915
1!
1%
#1920
0!
0%
b100 2
1/
1$
b11001011 8
b0011 7
#1925
1!
1%
#1930
0!
0%
b101 2
b0100 7
#1935
1!
1%
#1940
0!
0%
b110 2
0/
0$
b11011011 8
b0101 7
#1945
1!
1%
#1950
0!
0%
b111 2
b0110 7
#1955
1!
1%
#1960
0!
0%
b000 2
1/
1$
b011 1
b10011011 8
b0111 7
#1965
1!
1%
#1970
0!
0%
b100 1
b011 6
#1975
1!
1%
#1980
0!
0%
10
1*
0/
0$
b001 1
b100 6
15
1+
b10011011 4
b10011011 (
b01100001 )
b01100001 -
#1985
1!
1%
#1990
0!
0%
b010 1
b01100001 3
00
0*
b000 6
#1995
1!
1%
#2000
0!
0%
b001 2
1/
1$
b0000 7
05
0+
b010 6
bzzzzzzzz 4
bzzzzzzzz (
#2005
1!
1%
#2010
0!
0%
b010 2
0/
0$
b0001 7
#2015
1!
1%
#2020
0!
0%
b011 2
b10011001 8
b0010 7
#2025
1!
1%
#2030
0!
0%
b100 2
b0011 7
#2035
1!
1%
#2040
0!
0%
b101 2
b10010001 8
b0100 7
#2045
1!
1%
#2050
0!
0%
b110 2
1/
1$
b10000001 8
b0101 7
#2055
1!
1%
#2060
0!
0%
b111 2
b10100001 8
b0110 7
#2065
1!
1%
#2070
0!
0%
b000 2
0/
0$
b011 1
b11100001 8
b0111 7
#2075
1!
1%
#2080
0!
0%
1/
1$
b100 1
b01100001 8
b011 6
#2085
1!
1%
#2090
0!
0%
10
1*
0/
0$
b001 1
b100 6
15
1+
b01100001 4
b01100001 (
b01000010 )
b01000010 -
#2095
1!
1%
#2100
0!
0%
b010 1
b01000010 3
00
0*
b000 6
#2105
1!
1%
#2110
0!
0%
b001 2
b0000 7
05
0+
b010 6
bzzzzzzzz 4
bzzzzzzzz (
#2115
1!
1%
#2120
0!
0%
b010 2
1/
1$
b01100000 8
b0001 7
#2125
1!
1%
#2130
0!
0%
b011 2
0/
0$
b01100010 8
b0010 7
#2135
1!
1%
#2140
0!
0%
b100 2
b0011 7
#2145
1!
1%
#2150
0!
0%
b101 2
b0100 7
#2155
1!
1%
#2160
0!
0%
b110 2
b0101 7
#2165
1!
1%
#2170
0!
0%
b111 2
1/
1$
b01000010 8
b0110 7
#2175
1!
1%
#2180
0!
0%
b000 2
0/
0$
b011 1
b0111 7
#2185
1!
1%
#2190
0!
0%
b100 1
b011 6
#2195
1!
1%
#2200
0!
0%
10
1*
b001 1
b100 6
15
1+
b01000010 4
b01000010 (
b10011100 )
b10011100 -
#2205
1!
1%
#2210
0!
0%
b010 1
b10011100 3
00
0*
b000 6
#2215
1!
1%
#2220
0!
0%
b001 2
b0000 7
05
0+
b010 6
bzzzzzzzz 4
bzzzzzzzz (
#2225
1!
1%
#2230
0!
0%
b010 2
b0001 7
#2235
1!
1%
#2240
0!
0%
b011 2
1/
1$
b01000000 8
b0010 7
#2245
1!
1%
#2250
0!
0%
b100 2
b01000100 8
b0011 7
#2255
1!
1%
#2260
0!
0%
b101 2
b01001100 8
b0100 7
#2265
1!
1%
#2270
0!
0%
b110 2
0/
0$
b01011100 8
b0101 7
#2275
1!
1%
#2280
0!
0%
b111 2
b0110 7
#2285
1!
1%
#2290
0!
0%
b000 2
1/
1$
b011 1
b00011100 8
b0111 7
#2295
1!
1%
#2300
0!
0%
0/
0$
b100 1
b10011100 8
b011 6
#2305
1!
1%
#2310
0!
0%
10
1*
b001 1
b100 6
15
1+
b10011100 4
b10011100 (
b11011011 )
b11011011 -
#2315
1!
1%
#2320
0!
0%
b010 1
b11011011 3
00
0*
b000 6
#2325
1!
1%
#2330
0!
0%
b001 2
1/
1$
b0000 7
05
0+
b010 6
bzzzzzzzz 4
bzzzzzzzz (
#2335
1!
1%
#2340
0!
0%
b010 2
b10011101 8
b0001 7
#2345
1!
1%
#2350
0!
0%
b011 2
0/
0$
b10011111 8
b0010 7
#2355
1!
1%
#2360
0!
0%
b100 2
1/
1$
b10011011 8
b0011 7
#2365
1!
1%
#2370
0!
0%
b101 2
b0100 7
#2375
1!
1%
#2380
0!
0%
b110 2
0/
0$
b0101 7
#2385
1!
1%
#2390
0!
0%
b111 2
1/
1$
b0110 7
#2395
1!
1%
#2400
0!
0%
b000 2
b011 1
b11011011 8
b0111 7
#2405
1!
1%
#2410
0!
0%
0/
0$
b100 1
b011 6
#2415
1!
1%
#2420
0!
0%
10
1*
b001 1
b100 6
15
1+
b11011011 4
b11011011 (
b00011110 )
b00011110 -
#2425
1!
1%
#2430
0!
0%
b010 1
b00011110 3
00
0*
b000 6
#2435
1!
1%
#2440
0!
0%
b001 2
b0000 7
05
0+
b010 6
bzzzzzzzz 4
bzzzzzzzz (
#2445
1!
1%
#2450
0!
0%
b010 2
1/
1$
b11011010 8
b0001 7
#2455
1!
1%
#2460
0!
0%
b011 2
b0010 7
#2465
1!
1%
#2470
0!
0%
b100 2
b11011110 8
b0011 7
#2475
1!
1%
#2480
0!
0%
b101 2
b0100 7
#2485
1!
1%
#2490
0!
0%
b110 2
0/
0$
b0101 7
#2495
1!
1%
#2500
0!
0%
b111 2
b0110 7
#2505
1!
1%
#2510
0!
0%
b000 2
b011 1
b10011110 8
b0111 7
#2515
1!
1%
#2520
0!
0%
b100 1
b00011110 8
b011 6
#2525
1!
1%
#2530
0!
0%
10
1*
b001 1
b100 6
15
1+
b00011110 4
b00011110 (
b10000101 )
b10000101 -
#2535
1!
1%
#2540
0!
0%
b010 1
b10000101 3
00
0*
b000 6
#2545
1!
1%
#2550
0!
0%
b001 2
1/
1$
b0000 7
05
0+
b010 6
bzzzzzzzz 4
bzzzzzzzz (
#2555
1!
1%
#2560
0!
0%
b010 2
0/
0$
b00011111 8
b0001 7
#2565
1!
1%
#2570
0!
0%
b011 2
1/
1$
b00011101 8
b0010 7
#2575
1!
1%
#2580
0!
0%
b100 2
0/
0$
b0011 7
#2585
1!
1%
#2590
0!
0%
b101 2
b00010101 8
b0100 7
#2595
1!
1%
#2600
0!
0%
b110 2
b00000101 8
b0101 7
#2605
1!
1%
#2610
0!
0%
b111 2
b0110 7
#2615
1!
1%
#2620
0!
0%
b000 2
1/
1$
b011 1
b0111 7
#2625
1!
1%
#2630
0!
0%
b100 1
b10000101 8
b011 6
#2635
1!
1%
#2640
0!
0%
10
1*
0/
0$
b001 1
b100 6
15
1+
b10000101 4
b10000101 (
b01011001 )
b01011001 -
#2645
1!
1%
#2650
0!
0%
b010 1
b01011001 3
00
0*
b000 6
#2655
1!
1%
#2660
0!
0%
b001 2
1/
1$
b0000 7
05
0+
b010 6
bzzzzzzzz 4
bzzzzzzzz (
#2665
1!
1%
#2670
0!
0%
b010 2
0/
0$
b0001 7
#2675
1!
1%
#2680
0!
0%
b011 2
b0010 7
#2685
1!
1%
#2690
0!
0%
b100 2
1/
1$
b10000001 8
b0011 7
#2695
1!
1%
#2700
0!
0%
b101 2
b10001001 8
b0100 7
#2705
1!
1%
#2710
0!
0%
b110 2
0/
0$
b10011001 8
b0101 7
#2715
1!
1%
#2720
0!
0%
b111 2
1/
1$
b0110 7
#2725
1!
1%
#2730
0!
0%
b000 2
0/
0$
b011 1
b11011001 8
b0111 7
#2735
1!
1%
#2740
0!
0%
b100 1
b01011001 8
b011 6
#2745
1!
1%
#2750
0!
0%
10
1*
b001 1
b100 6
15
1+
b01011001 4
b01011001 (
b00000001 )
b00000001 -
#2755
1!
1%
#2760
0!
0%
b010 1
b00000001 3
00
0*
b000 6
#2765
1!
1%
#2770
0!
0%
b001 2
1/
1$
b0000 7
05
0+
b010 6
bzzzzzzzz 4
bzzzzzzzz (
#2775
1!
1%
#2780
0!
0%
b010 2
0/
0$
b0001 7
#2785
1!
1%
#2790
0!
0%
b011 2
b0010 7
#2795
1!
1%
#2800
0!
0%
b100 2
b0011 7
#2805
1!
1%
#2810
0!
0%
b101 2
b01010001 8
b0100 7
#2815
1!
1%
#2820
0!
0%
b110 2
b01000001 8
b0101 7
#2825
1!
1%
#2830
0!
0%
b111 2
b0110 7
#2835
1!
1%
#2840
0!
0%
b000 2
b011 1
b00000001 8
b0111 7
#2845
1!
1%
#2850
0!
0%
1/
1$
b100 1
b011 6
#2855
1!
1%
#2860
0!
0%
10
1*
0/
0$
b001 1
b100 6
15
1+
b00000001 4
b00000001 (
b10100011 )
b10100011 -
#2865
1!
1%
#2870
0!
0%
b010 1
b10100011 3
00
0*
b000 6
#2875
1!
1%
#2880
0!
0%
b001 2
1/
1$
b0000 7
05
0+
b010 6
bzzzzzzzz 4
bzzzzzzzz (
#2885
1!
1%
#2890
0!
0%
b010 2
b0001 7
#2895
1!
1%
#2900
0!
0%
b011 2
0/
0$
b00000011 8
b0010 7
#2905
1!
1%
#2910
0!
0%
b100 2
b0011 7
#2915
1!
1%
#2920
0!
0%
b101 2
b0100 7
#2925
1!
1%
#2930
0!
0%
b110 2
1/
1$
b0101 7
#2935
1!
1%
#2940
0!
0%
b111 2
0/
0$
b00100011 8
b0110 7
#2945
1!
1%
#2950
0!
0%
b000 2
1/
1$
b011 1
b0111 7
#2955
1!
1%
#2960
0!
0%
0/
0$
b100 1
b10100011 8
b011 6
#2965
1!
1%
#2970
0!
0%
10
1*
b001 1
b100 6
15
1+
b10100011 4
b10100011 (
b01101111 )
b01101111 -
#2975
1!
1%
#2980
0!
0%
b010 1
b01101111 3
00
0*
b000 6
#2985
1!
1%
#2990
0!
0%
b001 2
1/
1$
b0000 7
05
0+
b010 6
bzzzzzzzz 4
bzzzzzzzz (
#2995
1!
1%
#3000
0!
0%
b010 2
b0001 7
#3005
1!
1%
#3010
0!
0%
b011 2
b0010 7
#3015
1!
1%
#3020
0!
0%
b100 2
b10100111 8
b0011 7
#3025
1!
1%
#3030
0!
0%
b101 2
0/
0$
b10101111 8
b0100 7
#3035
1!
1%
#3040
0!
0%
b110 2
1/
1$
b0101 7
#3045
1!
1%
#3050
0!
0%
b111 2
b0110 7
#3055
1!
1%
#3060
0!
0%
b000 2
0/
0$
b011 1
b11101111 8
b0111 7
#3065
1!
1%
#3070
0!
0%
b100 1
b01101111 8
b011 6
#3075
1!
1%
#3080
0!
0%
10
1*
b001 1
b100 6
15
1+
b01101111 4
b01101111 (
b01010011 )
b01010011 -
#3085
1!
1%
#3090
0!
0%
b010 1
b01010011 3
00
0*
b000 6
#3095
1!
1%
#3100
0!
0%
b001 2
1/
1$
b0000 7
05
0+
b010 6
bzzzzzzzz 4
bzzzzzzzz (
#3105
1!
1%
#3110
0!
0%
b010 2
b0001 7
#3115
1!
1%
#3120
0!
0%
b011 2
0/
0$
b0010 7
#3125
1!
1%
#3130
0!
0%
b100 2
b01101011 8
b0011 7
#3135
1!
1%
#3140
0!
0%
b101 2
1/
1$
b01100011 8
b0100 7
#3145
1!
1%
#3150
0!
0%
b110 2
0/
0$
b01110011 8
b0101 7
#3155
1!
1%
#3160
0!
0%
b111 2
1/
1$
b01010011 8
b0110 7
#3165
1!
1%
#3170
0!
0%
b000 2
0/
0$
b011 1
b0111 7
#3175
1!
1%
#3180
0!
0%
b100 1
b011 6
#3185
1!
1%
#3190
0!
0%
10
1*
b001 1
b100 6
15
1+
b01010011 4
b01010011 (
b00111111 )
b00111111 -
#3195
1!
1%
#3200
0!
0%
b010 1
b00111111 3
00
0*
b000 6
#3205
1!
1%
#3210
0!
0%
b001 2
1/
1$
b0000 7
05
0+
b010 6
bzzzzzzzz 4
bzzzzzzzz (
#3215
1!
1%
#3220
0!
0%
b010 2
b0001 7
#3225
1!
1%
